<html lang="en">
    <head>
        <meta charset="UTF-8">
        <titre>Spot Errors</titre>
    </head>
    <body style= "background-color:yellow">
        <h1>Ma petite page HTML</h1>

        <p>Pour coder du HTML, on utilise des balises délimitées par "<" et ">".</p>

        <p>On peut aussi faire des listes. Par <strong>exemple</strong>:
        <ul>
            <il>item 1</il>
            <il>item 2</il>
                <ul>
                    <lo>sous-liste</lo>
                    <lo>ordonnée</lo>
                </ul>
        </ul>
        </p>

        <h7 style="foreground: red">Styles</h7>

        <p style="color: #GEFEE, text-size:1em;">On peut colorer nos textes. Trop bien !
            <bl />Et les rendre plus <small>petit</small> ou plus <big>grands</big>

        <a src = "/infos">cliquez ici pour plus d'information</a>
    </body>
</html>